\TOCentrysection{$ \textfont 0=\font 1 $}{Conventions used in this handbook}{2}
\TOCentrysubsec{$ \textfont 0=\font 1.1 $}{Citations and references}{2}
\TOCentrysubsec{$ \textfont 0=\font 1.2 $}{Syntax descriptions}{2}
\TOCentrysubsec{$ \textfont 0=\font 1.3 $}{Composite letters}{2}
\TOCentrysubsec{$ \textfont 0=\font 1.4 $}{Hyphens and dashes}{2}
\TOCentrysubsec{$ \textfont 0=\font 1.5 $}{Sundry quotation marks}{3}
\TOCentrysubsec{$ \textfont 0=\font 1.6 $}{How to refer to Malvern fonts}{3}
\TOCentrysection{$ \textfont 0=\font 2 $}{Malvern's font names}{4}
\TOCentrysubsec{$ \textfont 0=\font 2.1 $}{Numeric style codes}{4}
\TOCentrysubsec{$ \textfont 0=\font 2.2 $}{The style codes used with Malvern}{4}
\TOCentrysubsec{$ \textfont 0=\font 2.3 $}{\TeX \ font names}{4}
\TOCentrysubsec{$ \textfont 0=\font 2.4 $}{Naming Malvern fonts in Karl Berry's system}{5}
\TOCentrysection{$ \textfont 0=\font 3 $}{Using Malvern with \LaTeXe \ or NFSS\vn 2}{6}
\TOCentrysubsec{$ \textfont 0=\font 3.1 $}{Background to \LaTeXe }{6}
\TOCentrysubsec{$ \textfont 0=\font 3.2 $}{NFSS\vn 2}{6}
\TOCentrysubsec{$ \textfont 0=\font 3.3 $}{Malvern in NFSS\vn 2}{7}
\TOCentrysection{$ \textfont 0=\font 4 $}{Using Malvern with \LaTeX ~\n {2.09}}{7}
\TOCentrysubsec{$ \textfont 0=\font 4.1 $}{Using NFSS}{7}
\TOCentrysubsec{$ \textfont 0=\font 4.2 $}{Making fonts change size without NFSS}{8}
\TOCentrysubsec{$ \textfont 0=\font 4.3 $}{Which fonts to use with \LaTeX \ \n {2.09}}{9}
\TOCentrysection{$ \textfont 0=\font 5 $}{Using Malvern with plain \TeX : {\tt maamac.tex}}{9}
\TOCentrysubsec{$ \textfont 0=\font 5.1 $}{Ligatures}{9}
\TOCentrysubsec{$ \textfont 0=\font 5.2 $}{Special letters}{10}
\TOCentrysubsec{$ \textfont 0=\font 5.3 $}{Sundry symbols}{10}
\TOCentrysubsec{$ \textfont 0=\font 5.4 $}{Old-style and ranging numerals}{11}
\TOCentrysubsec{$ \textfont 0=\font 5.5 $}{Small captials}{11}
\TOCentrysection{$ \textfont 0=\font 6 $}{The encoding of Malvern fonts}{12}
\TOCentrysubsec{$ \textfont 0=\font 6.1 $}{The Malvern font-encoding conventions}{12}
\TOCentrysubsec{$ \textfont 0=\font 6.2 $}{Malvern A Encoding}{12}
\TOCentrysubsec{$ \textfont 0=\font 6.3 $}{Malvern B Encoding}{14}
\TOCentrysubsec{$ \textfont 0=\font 6.4 $}{Malvern C Encoding}{15}
\TOCentrysubsec{$ \textfont 0=\font 6.5 $}{Malvern G encoding}{15}
\TOCentrysection{$ \textfont 0=\font 7 $}{Composite letters used in some languages}{17}
\TOCentrysection{$ \textfont 0=\font 8 $}{Installation summary}{18}
\TOCentrysubsec{$ \textfont 0=\font 8.1 $}{Getting Malvern via FTP}{18}
\TOCentrysubsec{$ \textfont 0=\font 8.2 $}{Generic driver file}{18}
\TOCentrysubsec{$ \textfont 0=\font 8.3 $}{Malvern encodings}{18}
\TOCentrysubsec{$ \textfont 0=\font 8.4 $}{Malvern font names}{18}
\TOCentrysubsec{$ \textfont 0=\font 8.5 $}{Unpacking Malvern}{19}
\TOCentrysubsubsec{$ \textfont 0=\font 8.5.1 $}{Source files ({\tt /source})}{19}
\TOCentrysubsubsec{$ \textfont 0=\font 8.5.2 $}{Driver files ({\tt /drivers})}{19}
\TOCentrysubsubsec{$ \textfont 0=\font 8.5.3 $}{\TeX \ input files ({\tt /tex})}{19}
\TOCentrysubsubsec{$ \textfont 0=\font 8.5.4 $}{Documentation files ({\tt /doc}, {\tt /dvi})}{19}
\TOCentrysubsubsec{$ \textfont 0=\font 8.5.5 $}{Virtual font files ({\tt /vf})}{20}
\TOCentrysubsubsec{$ \textfont 0=\font 8.5.6 $}{Font metric files ({\tt /tfm})}{20}
\TOCentrysubsec{$ \textfont 0=\font 8.6 $}{Using mff to generate Malvern fonts}{20}
\TOCentrysubsec{$ \textfont 0=\font 8.7 $}{Generating Malvern fonts without mff}{20}
\TOCentrysubsubsec{$ \textfont 0=\font 8.7.1 $}{Values for {\it encoding}}{21}
\TOCentrysubsubsec{$ \textfont 0=\font 8.7.2 $}{Values for {\it weight}}{21}
\TOCentrysubsubsec{$ \textfont 0=\font 8.7.3 $}{Values for {\it hratio}}{22}
\TOCentrysubsubsec{$ \textfont 0=\font 8.7.4 $}{Values for {\it slant} and {\it italicness}}{22}
\TOCentrysection{$ \textfont 0=\font 9 $}{Copying Malvern and reporting bugs}{23}
\TOCentrysection{$ \textfont 0=\font 10 $}{Fontinst}{23}
\TOCentrysection{$ \textfont 0=\font 11 $}{To-do list}{24}
\TOCentrysection{$ \textfont 0=\font 12 $}{References}{25}
\TOCentrysection{$ \textfont 0=\font 13 $}{Index}{28}
