<?xml version="1.0" encoding="UTF-8" standalone="no"?>
<!-- Created with Inkscape (http://www.inkscape.org/) -->

<svg
   xmlns:dc="http://purl.org/dc/elements/1.1/"
   xmlns:cc="http://creativecommons.org/ns#"
   xmlns:rdf="http://www.w3.org/1999/02/22-rdf-syntax-ns#"
   xmlns:svg="http://www.w3.org/2000/svg"
   xmlns="http://www.w3.org/2000/svg"
   xmlns:sodipodi="http://sodipodi.sourceforge.net/DTD/sodipodi-0.dtd"
   xmlns:inkscape="http://www.inkscape.org/namespaces/inkscape"
   id="svg2"
   height="48"
   width="60"
   version="1.1"
   inkscape:version="0.48.5 r10040"
   sodipodi:docname="screen_on_linux.svg">
  <defs
     id="defs14" />
  <sodipodi:namedview
     pagecolor="#ffffff"
     bordercolor="#666666"
     borderopacity="1"
     objecttolerance="10"
     gridtolerance="10"
     guidetolerance="10"
     inkscape:pageopacity="0"
     inkscape:pageshadow="2"
     inkscape:window-width="640"
     inkscape:window-height="480"
     id="namedview12"
     showgrid="false"
     inkscape:zoom="5.8001302"
     inkscape:cx="30"
     inkscape:cy="24"
     inkscape:window-x="0"
     inkscape:window-y="27"
     inkscape:window-maximized="0"
     inkscape:current-layer="svg2" />
  <metadata
     id="metadata7">
    <rdf:RDF>
      <cc:Work
         rdf:about="">
        <dc:format>image/svg+xml</dc:format>
        <dc:type
           rdf:resource="http://purl.org/dc/dcmitype/StillImage" />
        <dc:title />
      </cc:Work>
    </rdf:RDF>
  </metadata>
  <g
     id="layer1"
     transform="matrix(0.90442922,0,0,0.90442922,2.8733098,-908.03701)"
     style="fill-rule:nonzero">
    <path
       id="path3898"
       style="color:#000000;fill:#000000;enable-background:accumulate"
       d="m 30.064733,1008.0643 c -17.692812,0 -25.1761049,16.6273 -25.2560361,37.1689 H 55.320767 c -0.07993,-20.5416 -7.563223,-37.1689 -25.256034,-37.1689 z"
       inkscape:connector-curvature="0" />
    <path
       id="path3898-3"
       style="color:#000000;fill:#e6e6e6;enable-background:accumulate"
       d="M 30.064733,1024.9163 C 17.932525,1012.7841 4.8886281,1024.6916 4.8086969,1045.2332 H 55.320767 c -0.07993,-20.5416 -13.046133,-32.2037 -25.256034,-20.3169 z"
       inkscape:connector-curvature="0" />
    <path
       id="path3924"
       style="color:#000000;fill:#000000;enable-background:accumulate"
       d="m -161.77487,0.41544724 a 12.635025,12.635025 0 1 1 -25.27005,0 12.635025,12.635025 0 1 1 25.27005,0 z"
       transform="matrix(0.55834839,0,0,0.55834839,120.39147,1033.4715)"
       inkscape:connector-curvature="0" />
    <path
       id="path3924-5"
       style="color:#000000;fill:#000000;enable-background:accumulate"
       d="m -161.77487,0.41544724 a 12.635025,12.635025 0 1 1 -25.27005,0 12.635025,12.635025 0 1 1 25.27005,0 z"
       transform="matrix(0.55834839,0,0,0.55834839,134.50096,1033.4715)"
       inkscape:connector-curvature="0" />
    <path
       id="path3924-6"
       style="color:#000000;fill:#ffffff;enable-background:accumulate"
       d="m -161.77487,0.41544724 a 12.635025,12.635025 0 1 1 -25.27005,0 12.635025,12.635025 0 1 1 25.27005,0 z"
       transform="matrix(0.19926176,0,0,0.19926176,55.245537,1031.103)"
       inkscape:connector-curvature="0" />
    <path
       id="path3924-6-2"
       style="color:#000000;fill:#ffffff;enable-background:accumulate"
       d="m -161.77487,0.41544724 a 12.635025,12.635025 0 1 1 -25.27005,0 12.635025,12.635025 0 1 1 25.27005,0 z"
       transform="matrix(0.19926176,0,0,0.19926176,69.355022,1031.103)"
       inkscape:connector-curvature="0" />
    <path
       id="path3980"
       style="color:#000000;fill:#ff6600;enable-background:accumulate"
       transform="matrix(0.68317254,0,0,0.68317254,140.7908,1032.6698)"
       d="m -152.64341,8.4098434 -4.71644,8.1691146 -4.71644,8.169115 -4.71644,-8.169115 -4.71644,-8.1691145 9.43288,-10e-8 z"
       inkscape:connector-curvature="0" />
  </g>
</svg>
